…
## CV iteratively

Use `modelr::crossv_mc`.

``` r
## 100 training test splits, now what happen when I fit a model to the training set, what is the rmse when taking the model fit of the training set and apply to the testing set. GET RMSE

cv_df = 
  crossv_mc(nonlin_df, n = 100)

## Taking a quick look
cv_df %>% pull(train) %>%  .[[1]] %>% as_tibble()
```

    ## # A tibble: 79 x 3
    ##       id      x       y
    ##    <int>  <dbl>   <dbl>
    ##  1     1 0.266   1.11  
    ##  2     2 0.372   0.764 
    ##  3     3 0.573   0.358 
    ##  4     4 0.908  -3.04  
    ##  5     6 0.898  -1.99  
    ##  6     7 0.945  -3.27  
    ##  7     8 0.661  -0.615 
    ##  8     9 0.629   0.0878
    ##  9    10 0.0618  0.392 
    ## 10    11 0.206   1.63  
    ## # ... with 69 more rows
…
